%YAML 1.1
%TAG !u! tag:unity3d.com,2011:
--- !u!1 &1347487236187178
GameObject:
  m_ObjectHideFlags: 0
  m_CorrespondingSourceObject: {fileID: 0}
  m_PrefabInstance: {fileID: 0}
  m_PrefabAsset: {fileID: 0}
  serializedVersion: 6
  m_Component:
  - component: {fileID: 4117228370956840}
  - component: {fileID: 926290633162619569}
  - component: {fileID: 4880763873281209065}
  - component: {fileID: 8192007526721068464}
  - component: {fileID: 2735953228642097122}
  - component: {fileID: 6424389259377892233}
  - component: {fileID: 3259016323236752158}
  m_Layer: 0
  m_Name: VARWIN_TOOLS
  m_TagString: Untagged
  m_Icon: {fileID: 0}
  m_NavMeshLayer: 0
  m_StaticEditorFlags: 0
  m_IsActive: 1
--- !u!4 &4117228370956840
Transform:
  m_ObjectHideFlags: 0
  m_CorrespondingSourceObject: {fileID: 0}
  m_PrefabInstance: {fileID: 0}
  m_PrefabAsset: {fileID: 0}
  m_GameObject: {fileID: 1347487236187178}
  m_LocalRotation: {x: 0, y: 0, z: 0, w: 1}
  m_LocalPosition: {x: 0.15844727, y: 0.6140137, z: 0.14160156}
  m_LocalScale: {x: 1, y: 1, z: 1}
  m_Children: []
  m_Father: {fileID: 0}
  m_RootOrder: 0
  m_LocalEulerAnglesHint: {x: 0, y: 0, z: 0}
--- !u!114 &926290633162619569
MonoBehaviour:
  m_ObjectHideFlags: 0
  m_CorrespondingSourceObject: {fileID: 0}
  m_PrefabInstance: {fileID: 0}
  m_PrefabAsset: {fileID: 0}
  m_GameObject: {fileID: 1347487236187178}
  m_Enabled: 0
  m_EditorHideFlags: 0
  m_Script: {fileID: 11500000, guid: ccc9df301e7104f44b1a4533d0fc84e1, type: 3}
  m_Name: 
  m_EditorClassIdentifier: 
--- !u!114 &4880763873281209065
MonoBehaviour:
  m_ObjectHideFlags: 0
  m_CorrespondingSourceObject: {fileID: 0}
  m_PrefabInstance: {fileID: 0}
  m_PrefabAsset: {fileID: 0}
  m_GameObject: {fileID: 1347487236187178}
  m_Enabled: 0
  m_EditorHideFlags: 0
  m_Script: {fileID: 11500000, guid: 794c92eec16e56841bfc1ff05027b920, type: 3}
  m_Name: 
  m_EditorClassIdentifier: 
  PlatformMode: 2
--- !u!114 &8192007526721068464
MonoBehaviour:
  m_ObjectHideFlags: 0
  m_CorrespondingSourceObject: {fileID: 0}
  m_PrefabInstance: {fileID: 0}
  m_PrefabAsset: {fileID: 0}
  m_GameObject: {fileID: 1347487236187178}
  m_Enabled: 1
  m_EditorHideFlags: 0
  m_Script: {fileID: 11500000, guid: 62ba02adb81f4cf47bf264a2f1113b46, type: 3}
  m_Name: 
  m_EditorClassIdentifier: 
  PlayerSpawnPoint: {fileID: 4117228370956840}
  GameMode: 0
--- !u!114 &2735953228642097122
MonoBehaviour:
  m_ObjectHideFlags: 0
  m_CorrespondingSourceObject: {fileID: 0}
  m_PrefabInstance: {fileID: 0}
  m_PrefabAsset: {fileID: 0}
  m_GameObject: {fileID: 1347487236187178}
  m_Enabled: 1
  m_EditorHideFlags: 0
  m_Script: {fileID: 11500000, guid: 1132240c5b0d45a5aa4748565278adae, type: 3}
  m_Name: 
  m_EditorClassIdentifier: 
  WorkingWithRequests: 0
--- !u!114 &6424389259377892233
MonoBehaviour:
  m_ObjectHideFlags: 0
  m_CorrespondingSourceObject: {fileID: 0}
  m_PrefabInstance: {fileID: 0}
  m_PrefabAsset: {fileID: 0}
  m_GameObject: {fileID: 1347487236187178}
  m_Enabled: 0
  m_EditorHideFlags: 0
  m_Script: {fileID: 11500000, guid: 69c10795c9d5a3b4c94bdc8f3e31666d, type: 3}
  m_Name: 
  m_EditorClassIdentifier: 
--- !u!114 &3259016323236752158
MonoBehaviour:
  m_ObjectHideFlags: 0
  m_CorrespondingSourceObject: {fileID: 0}
  m_PrefabInstance: {fileID: 0}
  m_PrefabAsset: {fileID: 0}
  m_GameObject: {fileID: 1347487236187178}
  m_Enabled: 1
  m_EditorHideFlags: 0
  m_Script: {fileID: 11500000, guid: b7372870e3974ff4e8a66ed33ce74bce, type: 3}
  m_Name: 
  m_EditorClassIdentifier: 
