{
    "name": "Varwin.Core.Editor",
    "references": [
        "VarwinCore",
        "ZFBrowser",
        "Varwin.Editor",
        "PhotonUnityNetworking"
    ],
    "optionalUnityReferences": [],
    "includePlatforms": [
        "Editor"
    ],
    "excludePlatforms": [],
    "allowUnsafeCode": false,
    "overrideReferences": false,
    "precompiledReferences": [],
    "autoReferenced": true,
    "defineConstraints": []
}