%YAML 1.1
%TAG !u! tag:unity3d.com,2011:
--- !u!1045 &1
EditorBuildSettings:
  m_ObjectHideFlags: 0
  serializedVersion: 2
  m_Scenes:
  - enabled: 1
    path: Assets/Scenes/Start.unity
    guid: 8eae64e944fea7e4ea9fcc0797dbf194
  - enabled: 1
    path: Assets/Scenes/ChemLab.unity
    guid: 93f76465b54e80f4bbcf742f7bc4de95
  m_configObjects: {}
